C:\Automation\workspace\i5\atdd-healthdirect\src\test\java\com\healthdirect\stepdefinition\TestBase.java
C:\Automation\workspace\i5\atdd-healthdirect\src\test\java\com\healthdirect\stepdefinition\VerifySearchFunctionalityTest.java
C:\Automation\workspace\i5\atdd-healthdirect\src\test\java\com\healthdirect\defaultpackage\CucumberRunner.java
